[debug (8/14/16 11:27:30 AM)] RunSetup: SikuliX Setup Build: 1.0.1 12NOV2013120000
[debug (8/14/16 11:27:30 AM)] RunSetup: ... starting with no args given
[debug (8/14/16 11:27:30 AM)] RunSetup: syspath: C:\CHS\Softwares\libs
[debug (8/14/16 11:27:30 AM)] RunSetup: syspath: C:\Program Files\Common Files\Microsoft Shared\Microsoft Online Services
[debug (8/14/16 11:27:30 AM)] RunSetup: syspath: C:\Program Files (x86)\Common Files\Microsoft Shared\Microsoft Online Services
[debug (8/14/16 11:27:30 AM)] RunSetup: syspath: C:\ProgramData\Oracle\Java\javapath
[debug (8/14/16 11:27:30 AM)] RunSetup: syspath: C:\Windows\system32
[debug (8/14/16 11:27:30 AM)] RunSetup: syspath: C:\Windows
[debug (8/14/16 11:27:30 AM)] RunSetup: syspath: C:\Windows\System32\Wbem
[debug (8/14/16 11:27:30 AM)] RunSetup: syspath: C:\Windows\System32\WindowsPowerShell\v1.0\
[debug (8/14/16 11:27:30 AM)] RunSetup: syspath: C:\Program Files (x86)\HP\LoadRunner\strawberry-perl\perl\bin
[debug (8/14/16 11:27:30 AM)] RunSetup: syspath: C:\Program Files (x86)\HP\Unified Functional Testing\bin
[debug (8/14/16 11:27:30 AM)] RunSetup: syspath: C:\CHS\Softwares\apache-ant-1.9.4\bin
[debug (8/14/16 11:27:30 AM)] RunSetup: syspath: C:\Program Files\Java\jdk1.8.0_73\bin
[debug (8/14/16 11:27:30 AM)] RunSetup: syspath: C:\Users\sachandr\workspace\CHS\GTAF_V5_Selenium\GTAF_Supportingfile\lib\SeleniumJars\libs
[debug (8/14/16 11:27:37 AM)] RunSetup: Option UPDATE selected
[debug (8/14/16 11:27:37 AM)] RunSetup: checking for newer versions
[debug (8/14/16 11:27:38 AM)] No version info available at https://dl.dropbox.com/u/42895525/SikuliX
[debug (8/14/16 11:27:43 AM)] RunSetup: You already have the latest version!
[debug (8/14/16 11:27:43 AM)] RunSetup: Completed: checking for newer versions
[debug (8/14/16 11:27:43 AM)] RunSetup: user home: C:\Users\sachandr
[debug (8/14/16 11:27:44 AM)] RunSetup: RunningSystem: Windows 6.1
[debug (8/14/16 11:27:44 AM)] RunSetup: parent of jar/classes: C:/CHS/Softwares/
[debug (8/14/16 11:27:44 AM)] RunSetup: RunningJava: Java 8 (amd64) 1.8.0_73-b02
[debug (8/14/16 11:27:44 AM)] RunSetup: ... could not detect whether Sikuli is used the first time on this system
[debug (8/14/16 11:27:59 AM)] FileManager: Downloading 1.0.1-1.jar having 12942 KB
[debug (8/14/16 11:28:19 AM)] FileManager: downloaded 12942 KB to C:\CHS\Softwares\1.0.1-1.jar
[debug (8/14/16 11:28:19 AM)] FileManager: download time: 19
[debug (8/14/16 11:28:22 AM)] FileManager: Downloading 1.0.1-3.jar having 408 KB
[debug (8/14/16 11:28:23 AM)] FileManager: downloaded 408 KB to C:\CHS\Softwares\1.0.1-3.jar
[debug (8/14/16 11:28:23 AM)] FileManager: download time: 0
[debug (8/14/16 11:28:27 AM)] FileManager: Downloading 1.0.1-5.jar having 12320 KB
[debug (8/14/16 11:28:42 AM)] FileManager: downloaded 12320 KB to C:\CHS\Softwares\1.0.1-5.jar
[debug (8/14/16 11:28:42 AM)] FileManager: download time: 13
[debug (8/14/16 11:28:45 AM)] RunSetup: Download ended
[debug (8/14/16 11:28:45 AM)] RunSetup: adding native stuff to sikuli-ide.jar
[debug (8/14/16 11:28:45 AM)] FileManager: buildJar: C:\CHS\Softwares\sikuli-temp.jar
[debug (8/14/16 11:28:45 AM)] FileManager: buildJar: adding: C:\CHS\Softwares\sikuli-ide.jar
[debug (8/14/16 11:28:49 AM)] FileManager: buildJar: adding: C:\CHS\Softwares\sikuli-setup.jar
[debug (8/14/16 11:28:52 AM)] FileManager: buildJar: adding: C:\CHS\Softwares\sikuli-tessdata.jar
[debug (8/14/16 11:28:56 AM)] FileManager: buildJar: completed
[debug (8/14/16 11:28:56 AM)] RunSetup: adding native stuff to sikuli-java.jar
[debug (8/14/16 11:28:56 AM)] FileManager: buildJar: C:\CHS\Softwares\sikuli-temp.jar
[debug (8/14/16 11:28:56 AM)] FileManager: buildJar: adding: C:\CHS\Softwares\sikuli-java.jar
[debug (8/14/16 11:28:56 AM)] FileManager: buildJar: adding: C:\CHS\Softwares\sikuli-setup.jar
[debug (8/14/16 11:29:00 AM)] FileManager: buildJar: adding: C:\CHS\Softwares\sikuli-tessdata.jar
[debug (8/14/16 11:29:03 AM)] FileManager: buildJar: completed
[debug (8/14/16 11:29:03 AM)] ResourceLoaderBasic: export: Trying to access package
[debug (8/14/16 11:29:03 AM)] ResourceLoaderBasic: export: Accessing jar: file:/C:/CHS/Softwares/sikuli-setup.jar
[debug (8/14/16 11:29:03 AM)] ResourceLoaderBasic: export: Found 1 Files in Commands/windows/runIDE.cmd
[debug (8/14/16 11:29:03 AM)] RunSetup: trying to set up the environment
[debug (8/14/16 11:29:03 AM)] ResourceLoaderBasic: check: we are running on arch: amd64
[debug (8/14/16 11:29:03 AM)] ResourceLoaderBasic: check: using Java at: C:/Program Files/Java/jdk1.8.0_73/jre/
[error (8/14/16 11:29:03 AM)] ResourceLoaderBasic: check: No valid libs path available until now!
[action (8/14/16 11:29:03 AM)] ResourceLoaderBasic: check: Please wait! Trying to extract libs to jar parent folder: C:/CHS/Softwares/
[debug (8/14/16 11:29:03 AM)] ResourceLoaderBasic: extractLibs: Accessing jar: file:/C:/CHS/Softwares/sikuli-setup.jar
[debug (8/14/16 11:29:04 AM)] ResourceLoaderBasic: extractLibs: Found 14 Files in META-INF/libs/windows/libs64/
[debug (8/14/16 11:29:04 AM)] ResourceLoaderBasic: export: Trying to access package
[debug (8/14/16 11:29:04 AM)] ResourceLoaderBasic: export: Accessing jar: file:/C:/CHS/Softwares/sikuli-setup.jar
[debug (8/14/16 11:29:04 AM)] ResourceLoaderBasic: export: Found 0 Files in META-INF/libs/tessdata
[debug (8/14/16 11:29:04 AM)] ResourceLoaderBasic: checkLibsDir: C:\CHS\Softwares\libs
[debug (8/14/16 11:29:04 AM)] ResourceLoaderBasic: loadLib: WinUtil
[debug (8/14/16 11:29:04 AM)] ResourceLoaderBasic: loadLib: Found: WinUtil
[error (8/14/16 11:29:05 AM)] ResourceLoaderBasic: loadLib: Fatal Error 110: loading: WinUtil.dll
[error (8/14/16 11:29:05 AM)] ResourceLoaderBasic: loadLib: Since native library was found, it might be a problem with needed dependent libraries
C:\CHS\Softwares\libs\WinUtil.dll: Can't find dependent libraries
[error (8/14/16 11:29:05 AM)] ResourceLoaderBasic: loadLib: Check, wether a valid Sikuli libs folder is in system path at runtime!
[error (8/14/16 11:29:05 AM)] ResourceLoaderBasic: loadLib: Running Setup: ignoring this error for now
[debug (8/14/16 11:29:05 AM)] ResourceLoaderBasic: checkLibsDir: Using libs at: C:\CHS\Softwares\libs
[debug (8/14/16 11:29:05 AM)] ResourceLoaderBasic: export: Using this as OCR directory (tessdata) too
[debug (8/14/16 11:29:09 AM)] RunSetup: Trying to run functional test: JAVA-API
[debug (8/14/16 11:29:09 AM)] SikuliX: before adding to classpath: C:\CHS\Softwares\sikuli-java.jar
[debug (8/14/16 11:29:09 AM)] SikuliX: 0: file:/C:/CHS/Softwares/sikuli-setup.jar
[debug (8/14/16 11:29:09 AM)] SikuliX: after adding to classpath
[debug (8/14/16 11:29:09 AM)] SikuliX: 0: file:/C:/CHS/Softwares/sikuli-setup.jar
[debug (8/14/16 11:29:09 AM)] SikuliX: 1: file:/C:/CHS/Softwares/sikuli-java.jar
[debug (8/14/16 11:29:09 AM)] RunSetup: trying to run org.sikuli.script.SikuliX.testSetup()
[debug (8/14/16 11:29:09 AM)] RunSetup: class found: class org.sikuli.script.SikuliX
[debug (8/14/16 11:29:09 AM)] RunSetup: getMethod: public static boolean org.sikuli.script.SikuliX.testSetup()
[debug (8/14/16 11:29:12 AM)] RunSetup: invoke: public static boolean org.sikuli.script.SikuliX.testSetup()
[debug (8/14/16 11:29:12 AM)] Screen: initScreens: basic initialization (1 Screen(s) found)
[debug (8/14/16 11:29:12 AM)] *** monitor configuration (primary: 0) ***
[debug (8/14/16 11:29:12 AM)] Screen 0: S(0)[0,0 1600x900]
[debug (8/14/16 11:29:12 AM)] *** end monitor configuration ***
[debug (8/14/16 11:29:12 AM)] Screen.capture: java.awt.Rectangle[x=0,y=0,width=100,height=100]
[debug (8/14/16 11:29:12 AM)] RobotDesktop: captureScreen: on 0 using java.awt.Rectangle[x=0,y=0,width=100,height=100]
[debug (8/14/16 11:29:12 AM)] ResourceLoaderBasic: loadLib: VisionProxy
[debug (8/14/16 11:29:12 AM)] ResourceLoaderBasic: loadLib: Found: VisionProxy
[debug (8/14/16 11:29:12 AM)] ResourceLoaderBasic: loadLib: Now loaded: VisionProxy
[debug (8/14/16 11:29:16 AM)] RunSetup: Trying to run functional test: running Jython statements via SikuliScript
[debug (8/14/16 11:29:16 AM)] SikuliX: before adding to classpath: C:\CHS\Softwares\sikuli-ide.jar
[debug (8/14/16 11:29:16 AM)] SikuliX: 0: file:/C:/CHS/Softwares/sikuli-setup.jar
[debug (8/14/16 11:29:16 AM)] SikuliX: 1: file:/C:/CHS/Softwares/sikuli-java.jar
[debug (8/14/16 11:29:16 AM)] SikuliX: after adding to classpath
[debug (8/14/16 11:29:16 AM)] SikuliX: 0: file:/C:/CHS/Softwares/sikuli-setup.jar
[debug (8/14/16 11:29:16 AM)] SikuliX: 1: file:/C:/CHS/Softwares/sikuli-java.jar
[debug (8/14/16 11:29:16 AM)] SikuliX: 2: file:/C:/CHS/Softwares/sikuli-ide.jar
[debug (8/14/16 11:29:16 AM)] RunSetup: trying to run testSetup.sikuli using SikuliScript
[debug (8/14/16 11:29:19 AM)] SikuliX Jython Support Build: 1.0.1 12SEP2013160248
[debug (8/14/16 11:29:20 AM)] JythonScriptRunner: : executeScriptHeader: adding SikuliX Lib path to sys.path
C:\CHS\Softwares\sikuli-setup.jar\Lib
[debug (8/14/16 11:29:20 AM)] Jython: sikuli: __init__: entering
[debug (8/14/16 11:29:20 AM)] Jython: sikuli: Sikuli: entering
[debug (8/14/16 11:29:21 AM)] Jython: sikuli: Sikuli: constants
[debug (8/14/16 11:29:21 AM)] Jython: sikuli: Sikuli: import Region
[debug (8/14/16 11:29:22 AM)] Jython: sikuli: Sikuli: import Screen
[debug (8/14/16 11:29:22 AM)] Jython: sikuli: Sikuli: Env.addHotkey
[debug (8/14/16 11:29:22 AM)] Jython: sikuli: Sikuli: import Match
[debug (8/14/16 11:29:22 AM)] Jython: sikuli: Sikuli: import Pattern
[debug (8/14/16 11:29:22 AM)] Jython: sikuli: Sikuli: import Location
[debug (8/14/16 11:29:22 AM)] Jython: sikuli: Sikuli: import ScreenUnion
[debug (8/14/16 11:29:22 AM)] Jython: sikuli: Sikuli: import Finder
[debug (8/14/16 11:29:22 AM)] Jython: sikuli: Sikuli: import App
[debug (8/14/16 11:29:22 AM)] ResourceLoaderBasic: loadLib: Is already loaded: WinUtil
[debug (8/14/16 11:29:22 AM)] Jython: sikuli: Sikuli: import Key
[debug (8/14/16 11:29:22 AM)] Jython: sikuli: Sikuli: import from Basics
[debug (8/14/16 11:29:22 AM)] Jython: sikuli: Sikuli: import from compare
[debug (8/14/16 11:29:22 AM)] Jython: sikuli: Sikuli: init SikuliImporter
[debug (8/14/16 11:29:22 AM)] Jython: sikuli: Sikuli: import SikuliScript
[debug (8/14/16 11:29:22 AM)] Jython: init SCREEN as ()
[debug (8/14/16 11:29:22 AM)] Sikuli-Script startup: 2547
